proof_of_concept/tb_24csm01_manid.vcd
$date
   Thu Apr 16 01:50:17 2026
$end

$version
  2025.2
  $dumpfile ("tb_24csm01_manid.vcd") 
$end

$timescale
  1ps
$end

$scope module tb_24csm01_manid $end
$var reg 1 ! scl $end
$var reg 1 " sda_host $end
$var wire 1 # SDA $end
$var wire 1 $ SCL $end
$var reg 24 % man_id [23:0] $end
$scope module dut $end
$var wire 1 & A1 $end
$var wire 1 ' A2 $end
$var wire 1 ( WP $end
$var wire 1 # SDA $end
$var wire 1 $ SCL $end
$var wire 1 ) RESET $end
$var reg 1 * SDA_DO $end
$var reg 1 + SDA_OE $end
$var wire 1 , SDA_DriveEnable $end
$var reg 1 - SDA_DriveEnableDlyd $end
$var wire 2 . ChipAddress [1:0] $end
$var reg 4 / BitCounter [3:0] $end
$var reg 32 0 ByteCounter [31:0] $end
$var reg 1 1 START_Rcvd $end
$var reg 1 2 STOP_Rcvd $end
$var reg 1 3 CTRL_Rcvd $end
$var reg 1 4 ADHI_Rcvd $end
$var reg 1 5 ADLO_Rcvd $end
$var reg 1 6 ACK_Rcvd $end
$var reg 1 7 SECCFG_Access $end
$var reg 1 8 MANID_Access $end
$var reg 1 9 EEPROM_Access $end
$var reg 1 : Valid_MANID_Dummy $end
$var reg 1 ; Valid_SECCFG_Dummy $end
$var reg 1 < WrOperation $end
$var reg 1 = RdOperation $end
$var reg 8 > ShiftRegister [7:0] $end
$var reg 8 ? ControlByte [7:0] $end
$var wire 1 @ CTRL_Valid $end
$var reg 1 A I2C_FirstRead $end
$var reg 17 B AddressPointer [16:0] $end
$var reg 24 C CfgRegBuffer [23:0] $end
$var wire 1 D AddressValid $end
$var wire 1 E EEPROM_Protected $end
$var wire 8 F RdDataByte [7:0] $end
$var wire 8 G EEPROM_RdData [7:0] $end
$var reg 8 H SECCFG_RdData [7:0] $end
$var wire 8 I MANID_RdData [7:0] $end
$var wire 8 J SECCFG_SecData [7:0] $end
$var wire 8 K SECCFG_CfgData [7:0] $end
$var reg 1 L WriteActive $end
$var reg 1 M HSModeEnabled $end
$var reg 1 N SecRegLock $end
$var reg 24 O ManIDBuffer [23:0] $end
$var wire 1 P CFGREG_ECS $end
$var reg 1 Q CFGREG_EWPM $end
$var reg 1 R CFGREG_LOCK $end
$var reg 8 S CFGREG_SWP [7:0] $end
$var integer 32 T LoopIndex [31:0] $end
$var integer 32 U tAA [31:0] $end
$var integer 32 V tWC [31:0] $end
$var wire 8 W MemoryByte_000 [7:0] $end
$var wire 8 X MemoryByte_001 [7:0] $end
$var wire 8 Y MemoryByte_002 [7:0] $end
$var wire 8 Z MemoryByte_003 [7:0] $end
$var wire 8 [ MemoryByte_004 [7:0] $end
$var wire 8 \ MemoryByte_005 [7:0] $end
$var wire 8 ] MemoryByte_006 [7:0] $end
$var wire 8 ^ MemoryByte_007 [7:0] $end
$var wire 8 _ MemoryByte_008 [7:0] $end
$var wire 8 ` MemoryByte_009 [7:0] $end
$var wire 8 a MemoryByte_00A [7:0] $end
$var wire 8 b MemoryByte_00B [7:0] $end
$var wire 8 c MemoryByte_00C [7:0] $end
$var wire 8 d MemoryByte_00D [7:0] $end
$var wire 8 e MemoryByte_00E [7:0] $end
$var wire 8 f MemoryByte_00F [7:0] $end
$var wire 8 g PageBuffer_00 [7:0] $end
$var wire 8 h PageBuffer_01 [7:0] $end
$var wire 8 i PageBuffer_02 [7:0] $end
$var wire 8 j PageBuffer_03 [7:0] $end
$var wire 8 k PageBuffer_04 [7:0] $end
$var wire 8 l PageBuffer_05 [7:0] $end
$var wire 8 m PageBuffer_06 [7:0] $end
$var wire 8 n PageBuffer_07 [7:0] $end
$var wire 8 o PageBuffer_08 [7:0] $end
$var wire 8 p PageBuffer_09 [7:0] $end
$var wire 8 q PageBuffer_0A [7:0] $end
$var wire 8 r PageBuffer_0B [7:0] $end
$var wire 8 s PageBuffer_0C [7:0] $end
$var wire 8 t PageBuffer_0D [7:0] $end
$var wire 8 u PageBuffer_0E [7:0] $end
$var wire 8 v PageBuffer_0F [7:0] $end
$var wire 8 w PageBuffer_10 [7:0] $end
$var wire 8 x PageBuffer_11 [7:0] $end
$var wire 8 y PageBuffer_12 [7:0] $end
$var wire 8 z PageBuffer_13 [7:0] $end
$var wire 8 { PageBuffer_14 [7:0] $end
$var wire 8 | PageBuffer_15 [7:0] $end
$var wire 8 } PageBuffer_16 [7:0] $end
$var wire 8 ~ PageBuffer_17 [7:0] $end
$var wire 8 !! PageBuffer_18 [7:0] $end
$var wire 8 "! PageBuffer_19 [7:0] $end
$var wire 8 #! PageBuffer_1A [7:0] $end
$var wire 8 $! PageBuffer_1B [7:0] $end
$var wire 8 %! PageBuffer_1C [7:0] $end
$var wire 8 &! PageBuffer_1D [7:0] $end
$var wire 8 '! PageBuffer_1E [7:0] $end
$var wire 8 (! PageBuffer_1F [7:0] $end
$var wire 8 )! PageBuffer_20 [7:0] $end
$var wire 8 *! PageBuffer_21 [7:0] $end
$var wire 8 +! PageBuffer_22 [7:0] $end
$var wire 8 ,! PageBuffer_23 [7:0] $end
$var wire 8 -! PageBuffer_24 [7:0] $end
$var wire 8 .! PageBuffer_25 [7:0] $end
$var wire 8 /! PageBuffer_26 [7:0] $end
$var wire 8 0! PageBuffer_27 [7:0] $end
$var wire 8 1! PageBuffer_28 [7:0] $end
$var wire 8 2! PageBuffer_29 [7:0] $end
$var wire 8 3! PageBuffer_2A [7:0] $end
$var wire 8 4! PageBuffer_2B [7:0] $end
$var wire 8 5! PageBuffer_2C [7:0] $end
$var wire 8 6! PageBuffer_2D [7:0] $end
$var wire 8 7! PageBuffer_2E [7:0] $end
$var wire 8 8! PageBuffer_2F [7:0] $end
$var wire 8 9! PageBuffer_30 [7:0] $end
$var wire 8 :! PageBuffer_31 [7:0] $end
$var wire 8 ;! PageBuffer_32 [7:0] $end
$var wire 8 <! PageBuffer_33 [7:0] $end
$var wire 8 =! PageBuffer_34 [7:0] $end
$var wire 8 >! PageBuffer_35 [7:0] $end
$var wire 8 ?! PageBuffer_36 [7:0] $end
$var wire 8 @! PageBuffer_37 [7:0] $end
$var wire 8 A! PageBuffer_38 [7:0] $end
$var wire 8 B! PageBuffer_39 [7:0] $end
$var wire 8 C! PageBuffer_3A [7:0] $end
$var wire 8 D! PageBuffer_3B [7:0] $end
$var wire 8 E! PageBuffer_3C [7:0] $end
$var wire 8 F! PageBuffer_3D [7:0] $end
$var wire 8 G! PageBuffer_3E [7:0] $end
$var wire 8 H! PageBuffer_3F [7:0] $end
$var wire 8 I! PageBuffer_40 [7:0] $end
$var wire 8 J! PageBuffer_41 [7:0] $end
$var wire 8 K! PageBuffer_42 [7:0] $end
$var wire 8 L! PageBuffer_43 [7:0] $end
$var wire 8 M! PageBuffer_44 [7:0] $end
$var wire 8 N! PageBuffer_45 [7:0] $end
$var wire 8 O! PageBuffer_46 [7:0] $end
$var wire 8 P! PageBuffer_47 [7:0] $end
$var wire 8 Q! PageBuffer_48 [7:0] $end
$var wire 8 R! PageBuffer_49 [7:0] $end
$var wire 8 S! PageBuffer_4A [7:0] $end
$var wire 8 T! PageBuffer_4B [7:0] $end
$var wire 8 U! PageBuffer_4C [7:0] $end
$var wire 8 V! PageBuffer_4D [7:0] $end
$var wire 8 W! PageBuffer_4E [7:0] $end
$var wire 8 X! PageBuffer_4F [7:0] $end
$var wire 8 Y! PageBuffer_50 [7:0] $end
$var wire 8 Z! PageBuffer_51 [7:0] $end
$var wire 8 [! PageBuffer_52 [7:0] $end
$var wire 8 \! PageBuffer_53 [7:0] $end
$var wire 8 ]! PageBuffer_54 [7:0] $end
$var wire 8 ^! PageBuffer_55 [7:0] $end
$var wire 8 _! PageBuffer_56 [7:0] $end
$var wire 8 `! PageBuffer_57 [7:0] $end
$var wire 8 a! PageBuffer_58 [7:0] $end
$var wire 8 b! PageBuffer_59 [7:0] $end
$var wire 8 c! PageBuffer_5A [7:0] $end
$var wire 8 d! PageBuffer_5B [7:0] $end
$var wire 8 e! PageBuffer_5C [7:0] $end
$var wire 8 f! PageBuffer_5D [7:0] $end
$var wire 8 g! PageBuffer_5E [7:0] $end
$var wire 8 h! PageBuffer_5F [7:0] $end
$var wire 8 i! PageBuffer_60 [7:0] $end
$var wire 8 j! PageBuffer_61 [7:0] $end
$var wire 8 k! PageBuffer_62 [7:0] $end
$var wire 8 l! PageBuffer_63 [7:0] $end
$var wire 8 m! PageBuffer_64 [7:0] $end
$var wire 8 n! PageBuffer_65 [7:0] $end
$var wire 8 o! PageBuffer_66 [7:0] $end
$var wire 8 p! PageBuffer_67 [7:0] $end
$var wire 8 q! PageBuffer_68 [7:0] $end
$var wire 8 r! PageBuffer_69 [7:0] $end
$var wire 8 s! PageBuffer_6A [7:0] $end
$var wire 8 t! PageBuffer_6B [7:0] $end
$var wire 8 u! PageBuffer_6C [7:0] $end
$var wire 8 v! PageBuffer_6D [7:0] $end
$var wire 8 w! PageBuffer_6E [7:0] $end
$var wire 8 x! PageBuffer_6F [7:0] $end
$var wire 8 y! PageBuffer_70 [7:0] $end
$var wire 8 z! PageBuffer_71 [7:0] $end
$var wire 8 {! PageBuffer_72 [7:0] $end
$var wire 8 |! PageBuffer_73 [7:0] $end
$var wire 8 }! PageBuffer_74 [7:0] $end
$var wire 8 ~! PageBuffer_75 [7:0] $end
$var wire 8 !" PageBuffer_76 [7:0] $end
$var wire 8 "" PageBuffer_77 [7:0] $end
$var wire 8 #" PageBuffer_78 [7:0] $end
$var wire 8 $" PageBuffer_79 [7:0] $end
$var wire 8 %" PageBuffer_7A [7:0] $end
$var wire 8 &" PageBuffer_7B [7:0] $end
$var wire 8 '" PageBuffer_7C [7:0] $end
$var wire 8 (" PageBuffer_7D [7:0] $end
$var wire 8 )" PageBuffer_7E [7:0] $end
$var wire 8 *" PageBuffer_7F [7:0] $end
$var wire 8 +" PageBuffer_80 [7:0] $end
$var wire 8 ," PageBuffer_81 [7:0] $end
$var wire 8 -" PageBuffer_82 [7:0] $end
$var wire 8 ." PageBuffer_83 [7:0] $end
$var wire 8 /" PageBuffer_84 [7:0] $end
$var wire 8 0" PageBuffer_85 [7:0] $end
$var wire 8 1" PageBuffer_86 [7:0] $end
$var wire 8 2" PageBuffer_87 [7:0] $end
$var wire 8 3" PageBuffer_88 [7:0] $end
$var wire 8 4" PageBuffer_89 [7:0] $end
$var wire 8 5" PageBuffer_8A [7:0] $end
$var wire 8 6" PageBuffer_8B [7:0] $end
$var wire 8 7" PageBuffer_8C [7:0] $end
$var wire 8 8" PageBuffer_8D [7:0] $end
$var wire 8 9" PageBuffer_8E [7:0] $end
$var wire 8 :" PageBuffer_8F [7:0] $end
$var wire 8 ;" PageBuffer_90 [7:0] $end
$var wire 8 <" PageBuffer_91 [7:0] $end
$var wire 8 =" PageBuffer_92 [7:0] $end
$var wire 8 >" PageBuffer_93 [7:0] $end
$var wire 8 ?" PageBuffer_94 [7:0] $end
$var wire 8 @" PageBuffer_95 [7:0] $end
$var wire 8 A" PageBuffer_96 [7:0] $end
$var wire 8 B" PageBuffer_97 [7:0] $end
$var wire 8 C" PageBuffer_98 [7:0] $end
$var wire 8 D" PageBuffer_99 [7:0] $end
$var wire 8 E" PageBuffer_9A [7:0] $end
$var wire 8 F" PageBuffer_9B [7:0] $end
$var wire 8 G" PageBuffer_9C [7:0] $end
$var wire 8 H" PageBuffer_9D [7:0] $end
$var wire 8 I" PageBuffer_9E [7:0] $end
$var wire 8 J" PageBuffer_9F [7:0] $end
$var wire 8 K" PageBuffer_A0 [7:0] $end
$var wire 8 L" PageBuffer_A1 [7:0] $end
$var wire 8 M" PageBuffer_A2 [7:0] $end
$var wire 8 N" PageBuffer_A3 [7:0] $end
$var wire 8 O" PageBuffer_A4 [7:0] $end
$var wire 8 P" PageBuffer_A5 [7:0] $end
$var wire 8 Q" PageBuffer_A6 [7:0] $end
$var wire 8 R" PageBuffer_A7 [7:0] $end
$var wire 8 S" PageBuffer_A8 [7:0] $end
$var wire 8 T" PageBuffer_A9 [7:0] $end
$var wire 8 U" PageBuffer_AA [7:0] $end
$var wire 8 V" PageBuffer_AB [7:0] $end
$var wire 8 W" PageBuffer_AC [7:0] $end
$var wire 8 X" PageBuffer_AD [7:0] $end
$var wire 8 Y" PageBuffer_AE [7:0] $end
$var wire 8 Z" PageBuffer_AF [7:0] $end
$var wire 8 [" PageBuffer_B0 [7:0] $end
$var wire 8 \" PageBuffer_B1 [7:0] $end
$var wire 8 ]" PageBuffer_B2 [7:0] $end
$var wire 8 ^" PageBuffer_B3 [7:0] $end
$var wire 8 _" PageBuffer_B4 [7:0] $end
$var wire 8 `" PageBuffer_B5 [7:0] $end
$var wire 8 a" PageBuffer_B6 [7:0] $end
$var wire 8 b" PageBuffer_B7 [7:0] $end
$var wire 8 c" PageBuffer_B8 [7:0] $end
$var wire 8 d" PageBuffer_B9 [7:0] $end
$var wire 8 e" PageBuffer_BA [7:0] $end
$var wire 8 f" PageBuffer_BB [7:0] $end
$var wire 8 g" PageBuffer_BC [7:0] $end
$var wire 8 h" PageBuffer_BD [7:0] $end
$var wire 8 i" PageBuffer_BE [7:0] $end
$var wire 8 j" PageBuffer_BF [7:0] $end
$var wire 8 k" PageBuffer_C0 [7:0] $end
$var wire 8 l" PageBuffer_C1 [7:0] $end
$var wire 8 m" PageBuffer_C2 [7:0] $end
$var wire 8 n" PageBuffer_C3 [7:0] $end
$var wire 8 o" PageBuffer_C4 [7:0] $end
$var wire 8 p" PageBuffer_C5 [7:0] $end
$var wire 8 q" PageBuffer_C6 [7:0] $end
$var wire 8 r" PageBuffer_C7 [7:0] $end
$var wire 8 s" PageBuffer_C8 [7:0] $end
$var wire 8 t" PageBuffer_C9 [7:0] $end
$var wire 8 u" PageBuffer_CA [7:0] $end
$var wire 8 v" PageBuffer_CB [7:0] $end
$var wire 8 w" PageBuffer_CC [7:0] $end
$var wire 8 x" PageBuffer_CD [7:0] $end
$var wire 8 y" PageBuffer_CE [7:0] $end
$var wire 8 z" PageBuffer_CF [7:0] $end
$var wire 8 {" PageBuffer_D0 [7:0] $end
$var wire 8 |" PageBuffer_D1 [7:0] $end
$var wire 8 }" PageBuffer_D2 [7:0] $end
$var wire 8 ~" PageBuffer_D3 [7:0] $end
$var wire 8 !# PageBuffer_D4 [7:0] $end
$var wire 8 "# PageBuffer_D5 [7:0] $end
$var wire 8 ## PageBuffer_D6 [7:0] $end
$var wire 8 $# PageBuffer_D7 [7:0] $end
$var wire 8 %# PageBuffer_D8 [7:0] $end
$var wire 8 &# PageBuffer_D9 [7:0] $end
$var wire 8 '# PageBuffer_DA [7:0] $end
$var wire 8 (# PageBuffer_DB [7:0] $end
$var wire 8 )# PageBuffer_DC [7:0] $end
$var wire 8 *# PageBuffer_DD [7:0] $end
$var wire 8 +# PageBuffer_DE [7:0] $end
$var wire 8 ,# PageBuffer_DF [7:0] $end
$var wire 8 -# PageBuffer_E0 [7:0] $end
$var wire 8 .# PageBuffer_E1 [7:0] $end
$var wire 8 /# PageBuffer_E2 [7:0] $end
$var wire 8 0# PageBuffer_E3 [7:0] $end
$var wire 8 1# PageBuffer_E4 [7:0] $end
$var wire 8 2# PageBuffer_E5 [7:0] $end
$var wire 8 3# PageBuffer_E6 [7:0] $end
$var wire 8 4# PageBuffer_E7 [7:0] $end
$var wire 8 5# PageBuffer_E8 [7:0] $end
$var wire 8 6# PageBuffer_E9 [7:0] $end
$var wire 8 7# PageBuffer_EA [7:0] $end
$var wire 8 8# PageBuffer_EB [7:0] $end
$var wire 8 9# PageBuffer_EC [7:0] $end
$var wire 8 :# PageBuffer_ED [7:0] $end
$var wire 8 ;# PageBuffer_EE [7:0] $end
$var wire 8 <# PageBuffer_EF [7:0] $end
$var wire 8 =# PageBuffer_F0 [7:0] $end
$var wire 8 ># PageBuffer_F1 [7:0] $end
$var wire 8 ?# PageBuffer_F2 [7:0] $end
$var wire 8 @# PageBuffer_F3 [7:0] $end
$var wire 8 A# PageBuffer_F4 [7:0] $end
$var wire 8 B# PageBuffer_F5 [7:0] $end
$var wire 8 C# PageBuffer_F6 [7:0] $end
$var wire 8 D# PageBuffer_F7 [7:0] $end
$var wire 8 E# PageBuffer_F8 [7:0] $end
$var wire 8 F# PageBuffer_F9 [7:0] $end
$var wire 8 G# PageBuffer_FA [7:0] $end
$var wire 8 H# PageBuffer_FB [7:0] $end
$var wire 8 I# PageBuffer_FC [7:0] $end
$var wire 8 J# PageBuffer_FD [7:0] $end
$var wire 8 K# PageBuffer_FE [7:0] $end
$var wire 8 L# PageBuffer_FF [7:0] $end
$var wire 1 M# TimingCheckEnable $end
$var wire 1 N# NonHSTimingCheckEnable $end
$var wire 1 O# HSTimingCheckEnable $end
$var wire 1 P# tstSTOP $end
$upscope $end
$scope begin Block174_35 $end
$var reg 1 Q# ack $end
$upscope $end
$scope task i2c_start $end
$upscope $end
$scope task i2c_rep_start $end
$upscope $end
$scope task i2c_stop $end
$upscope $end
$scope task i2c_write_bit $end
$upscope $end
$scope task i2c_write_byte $end
$upscope $end
$scope task i2c_read_byte $end
$upscope $end
$upscope $end
$enddefinitions $end

#0
$dumpvars
1!
bx !!
bx !"
bx !#
z"
bx "!
bx ""
bx "#
1#
bx #!
bx #"
bx ##
1$
bx $!
bx $"
bx $#
bx %
bx %!
bx %"
bx %#
0&
bx &!
bx &"
bx &#
0'
bx '!
bx '"
bx '#
0(
bx (!
bx ("
bx (#
0)
bx )!
bx )"
bx )#
0*
bx *!
bx *"
bx *#
0+
bx +!
bx +"
bx +#
0,
bx ,!
bx ,"
bx ,#
0-
bx -!
bx -"
bx -#
b0 .
bx .!
bx ."
bx .#
b1 /
bx /!
bx /"
bx /#
b0 0
bx 0!
bx 0"
bx 0#
01
bx 1!
bx 1"
bx 1#
12
bx 2!
bx 2"
bx 2#
03
bx 3!
bx 3"
bx 3#
04
bx 4!
bx 4"
bx 4#
05
bx 5!
bx 5"
bx 5#
06
bx 6!
bx 6"
bx 6#
07
bx 7!
bx 7"
bx 7#
08
bx 8!
bx 8"
bx 8#
09
bx 9!
bx 9"
bx 9#
0:
bx :!
bx :"
bx :#
0;
bx ;!
bx ;"
bx ;#
0<
bx <!
bx <"
bx <#
0=
bx =!
bx ="
bx =#
bx >
bx >!
bx >"
bx >#
b0 ?
bx ?!
bx ?"
bx ?#
0@
bx @!
bx @"
bx @#
0A
bx A!
bx A"
bx A#
b0 B
bx B!
bx B"
bx B#
bx C
bx C!
bx C"
bx C#
0D
bx D!
bx D"
bx D#
0E
bx E!
bx E"
bx E#
bx F
bx F!
bx F"
bx F#
bx G
bx G!
bx G"
bx G#
bx H
bx H!
bx H"
bx H#
bx I
bx I!
bx I"
bx I#
b11111111 J
bx J!
bx J"
bx J#
b0 K
bx K!
bx K"
bx K#
0L
bx L!
bx L"
bx L#
0M
bx M!
bx M"
1M#
0N
bx N!
bx N"
1N#
bx O
bx O!
bx O"
0O#
0P
bx P!
bx P"
1P#
0Q
bx Q!
bx Q"
xQ#
0R
bx R!
bx R"
b0 S
bx S!
bx S"
bx T
bx T!
bx T"
b110010000 U
bx U!
bx U"
b10011000100101101000000 V
bx V!
bx V"
bx W
bx W!
bx W"
bx X
bx X!
bx X"
bx Y
bx Y!
bx Y"
bx Z
bx Z!
bx Z"
bx [
bx [!
bx ["
bx \
bx \!
bx \"
bx ]
bx ]!
bx ]"
bx ^
bx ^!
bx ^"
bx _
bx _!
bx _"
bx `
bx `!
bx `"
bx a
bx a!
bx a"
bx b
bx b!
bx b"
bx c
bx c!
bx c"
bx d
bx d!
bx d"
bx e
bx e!
bx e"
bx f
bx f!
bx f"
bx g
bx g!
bx g"
bx h
bx h!
bx h"
bx i
bx i!
bx i"
bx j
bx j!
bx j"
bx k
bx k!
bx k"
bx l
bx l!
bx l"
bx m
bx m!
bx m"
bx n
bx n!
bx n"
bx o
bx o!
bx o"
bx p
bx p!
bx p"
bx q
bx q!
bx q"
bx r
bx r!
bx r"
bx s
bx s!
bx s"
bx t
bx t!
bx t"
bx u
bx u!
bx u"
bx v
bx v!
bx v"
bx w
bx w!
bx w"
bx x
bx x!
bx x"
bx y
bx y!
bx y"
bx z
bx z!
bx z"
bx {
bx {!
bx {"
bx |
bx |!
bx |"
bx }
bx }!
bx }"
bx ~
bx ~!
bx ~"
$end

#1000
b1010 /
02
0P#

#1260000
0"
0#
b0 /
11
1A

#1560000
0!
0$

#2570000
z"
1#

#3760000
1!
1$
b1 /
bx1 >

#5010000
0!
0$

#6260000
1!
1$
b10 /
bx11 >

#7510000
0!
0$

#8760000
1!
1$
b11 /
bx111 >

#10010000
0!
0$

#11260000
1!
1$
b100 /
bx1111 >

#12510000
0!
0$

#13760000
1!
1$
b101 /
bx11111 >

#15010000
0!
0$

#15070000
0"
0#

#16260000
1!
1$
b110 /
bx111110 >

#17510000
0!
0$

#18760000
1!
1$
b111 /
bx1111100 >

#20010000
0!
0$

#21260000
1!
1$
b1000 /
01
13
18
1<
b11111000 >
b11111000 ?
1@
1D
b100000000 T

#22510000
0!
0$
1+
1,
0M#
0N#

#22570000
z"
1#

#22910000
0#
1-

#23760000
1!
1$
b1001 /
b1 0
b11110000 >

#25010000
0!
0$
0+
0,
b0 /
1M#
1N#

#25070000
0Q#

#25410000
1#
0-

#26320000
1!
1$
b1 /
b11100001 >

#27570000
0!
0$

#27630000
0"
0#

#28820000
1!
1$
b10 /
b11000010 >

#30070000
0!
0$

#30130000
z"
1#

#31320000
1!
1$
b11 /
b10000101 >

#32570000
0!
0$

#32630000
0"
0#

#33820000
1!
1$
b100 /
b1010 >

#35070000
0!
0$

#36320000
1!
1$
b101 /
b10100 >

#37570000
0!
0$

#38820000
1!
1$
b110 /
b101000 >

#40070000
0!
0$

#41320000
1!
1$
b111 /
b1010000 >

#42570000
0!
0$

#43820000
1!
1$
b1000 /
03
14
1:
b10100000 >
0@
b0 F
b0 I
b1101000011010000 O

#45070000
0!
0$
1+
1,
0M#
0N#

#45130000
z"
1#

#45470000
0#
1-

#46320000
1!
1$
b1001 /
b10 0
b1000000 >

#47570000
0!
0$
0+
0,
b0 /
1M#
1N#

#47970000
1#
0-

#48880000
1!
1$
b1 /
b10000001 >

#49180000
0"
0#
b0 /
b0 0
11
04

#49181000
08
0<
0D
bx F

#49480000
0!
0$

#50490000
z"
1#

#51680000
1!
1$
b1 /
b11 >

#52930000
0!
0$

#54180000
1!
1$
b10 /
b111 >

#55430000
0!
0$

#56680000
1!
1$
b11 /
b1111 >

#57930000
0!
0$

#59180000
1!
1$
b100 /
b11111 >

#60430000
0!
0$

#61680000
1!
1$
b101 /
b111111 >

#62930000
0!
0$

#62990000
0"
0#

#64180000
1!
1$
b110 /
b1111110 >

#65430000
0!
0$

#66680000
1!
1$
b111 /
b11111100 >

#67930000
0!
0$

#67990000
z"
1#

#69180000
1!
1$
b1000 /
01
13
18
1=
b11111001 >
b11111001 ?
1@
1D
b0 F

#70430000
0!
0$
1+
1,
0M#
0N#

#70830000
0#
1-

#71680000
1!
1$
b1001 /
b1 0
b11110010 >

#72930000
0!
0$
b0 /
0A

#74240000
1!
1$
b1 /
b11100100 >

#75490000
0!
0$

#76740000
1!
1$
b10 /
b11001000 >

#77990000
0!
0$

#79240000
1!
1$
b11 /
b10010000 >

#80490000
0!
0$

#81740000
1!
1$
b100 /
b100000 >

#82990000
0!
0$

#84240000
1!
1$
b101 /
b1000000 >

#85490000
0!
0$

#86740000
1!
1$
b110 /
b10000000 >

#87990000
0!
0$

#89240000
1!
1$
b111 /
b0 >

#90490000
0!
0$

#91740000
1!
1$
b1000 /

#92990000
0!
0$
0+
0,
1M#
1N#

#93050000
0"

#93390000
0-

#94240000
1!
1$
b1001 /
b10 0
16
b11010000 F
b11010000 I
b110100001101000000000000 O

#95490000
0!
0$
1*
1+
b0 /
06
0M#
0N#

#95550000
z"
1#

#96800000
1!
1$
b1 /
b1 >

#98050000
0!
0$

#99300000
1!
1$
b10 /
b11 >

#100550000
0!
0$
0*
1,

#100950000
0#
1-

#101800000
1!
1$
b11 /
b110 >

#103050000
0!
0$
1*
0,

#103450000
1#
0-

#104300000
1!
1$
b100 /
b1101 >

#105550000
0!
0$
0*
1,

#105950000
0#
1-

#106800000
1!
1$
b101 /
b11010 >

#108050000
0!
0$

#109300000
1!
1$
b110 /
b110100 >

#110550000
0!
0$

#111800000
1!
1$
b111 /
b1101000 >

#113050000
0!
0$

#114300000
1!
1$
b1000 /
b11010000 >

#115550000
0!
0$
0+
0,
1M#
1N#

#115610000
0"

#115950000
0-

#116800000
1!
1$
b1001 /
b11 0
16
b10100000 >
b110100000000000011010000 O

#118050000
0!
0$
1*
1+
b0 /
06
0M#
0N#

#118110000
z"
1#

#119360000
1!
1$
b1 /
b1000001 >

#120610000
0!
0$

#121860000
1!
1$
b10 /
b10000011 >

#123110000
0!
0$
0*
1,

#123510000
0#
1-

#124360000
1!
1$
b11 /
b110 >

#125610000
0!
0$
1*
0,

#126010000
1#
0-

#126860000
1!
1$
b100 /
b1101 >

#128110000
0!
0$
0*
1,

#128510000
0#
1-

#129360000
1!
1$
b101 /
b11010 >

#130610000
0!
0$

#131860000
1!
1$
b110 /
b110100 >

#133110000
0!
0$

#134360000
1!
1$
b111 /
b1101000 >

#135610000
0!
0$

#136860000
1!
1$
b1000 /
b11010000 >

#138110000
0!
0$
0+
0,
1M#
1N#

#138510000
1#
0-

#139360000
1!
1$
b1010 /
b100 0
03
0:
b10100001 >
0@
b0 F
b0 I
b1101000011010000 O

#139361000
b0 0
08
0=
0D
bx F

#140610000
0!
0$

#140670000
0"
0#

#141920000
1!
1$
b1011 /
b1000010 >

#142220000
z"
1#
12
1P#

#142221000
b1010 /
02
0P#

#142820000
b1101000011010000 %
